{
    "ubuntu": {
        "Ubuntu 20.04 focal, Python 3.10": 1,
        "Ubuntu 22.04 jammy, Python 3.10": 1,
        "Ubuntu 24.04 noble, Python 3.10": {
            "num_runs": 3,
            "run_date": "2025-02-07"
        }
    },
    "win": {},
    "macos": {
        "macOS 14.5, Python 3.10": 1
    },
    "rpi": {}
}